<?xml version="1.0" encoding="UTF-8" standalone="no"?>
<!-- Created with Inkscape (http://www.inkscape.org/) -->

<svg
   xmlns:dc="http://purl.org/dc/elements/1.1/"
   xmlns:cc="http://creativecommons.org/ns#"
   xmlns:rdf="http://www.w3.org/1999/02/22-rdf-syntax-ns#"
   xmlns:svg="http://www.w3.org/2000/svg"
   xmlns="http://www.w3.org/2000/svg"
   xmlns:xlink="http://www.w3.org/1999/xlink"
   xmlns:sodipodi="http://sodipodi.sourceforge.net/DTD/sodipodi-0.dtd"
   xmlns:inkscape="http://www.inkscape.org/namespaces/inkscape"
   width="122"
   height="69"
   id="svg11635"
   version="1.1"
   inkscape:version="0.48.4 r9939"
   sodipodi:docname="button-gray-prelight.svg">
  <defs
     id="defs11637">
    <linearGradient
       y2="67.102608"
       x2="473.41205"
       y1="73.566734"
       x1="473.41205"
       gradientTransform="matrix(5.4368844,0,0,10.471459,-1419.2137,83.553707)"
       gradientUnits="userSpaceOnUse"
       id="linearGradient22362-1"
       xlink:href="#linearGradient18264-02-5-9-2-8-56-7"
       inkscape:collect="always" />
    <linearGradient
       id="linearGradient18264-02-5-9-2-8-56-7">
      <stop
         style="stop-color:#292929;stop-opacity:1;"
         offset="0"
         id="stop18266-978-6-5-1-9-2-3" />
      <stop
         style="stop-color:#9a9a9a;stop-opacity:0.47187501;"
         offset="1"
         id="stop18268-1-4-6-6-8-2-7" />
    </linearGradient>
    <linearGradient
       y2="67.102608"
       x2="473.41205"
       y1="73.566734"
       x1="473.41205"
       gradientTransform="matrix(5.4368844,0,0,10.471459,-1419.2137,83.553707)"
       gradientUnits="userSpaceOnUse"
       id="linearGradient11633"
       xlink:href="#linearGradient18264-02-5-9-2-8-56-7"
       inkscape:collect="always" />
    <linearGradient
       y2="67.102608"
       x2="473.41205"
       y1="73.566734"
       x1="473.41205"
       gradientTransform="matrix(5.4368844,0,0,10.471459,-1419.2137,83.553707)"
       gradientUnits="userSpaceOnUse"
       id="linearGradient11633-7"
       xlink:href="#linearGradient18264-02-5-9-2-8-56-7-4"
       inkscape:collect="always" />
    <linearGradient
       id="linearGradient18264-02-5-9-2-8-56-7-4">
      <stop
         style="stop-color:#292929;stop-opacity:1;"
         offset="0"
         id="stop18266-978-6-5-1-9-2-3-2" />
      <stop
         style="stop-color:#9a9a9a;stop-opacity:0.47187501;"
         offset="1"
         id="stop18268-1-4-6-6-8-2-7-7" />
    </linearGradient>
    <linearGradient
       y2="67.102608"
       x2="473.41205"
       y1="73.566734"
       x1="473.41205"
       gradientTransform="matrix(5.4368844,0,0,10.471459,-1419.2137,83.553707)"
       gradientUnits="userSpaceOnUse"
       id="linearGradient41041"
       xlink:href="#linearGradient18264-02-5-9-2-8-56-7-4"
       inkscape:collect="always" />
  </defs>
  <sodipodi:namedview
     id="base"
     pagecolor="#ffffff"
     bordercolor="#666666"
     borderopacity="1.0"
     inkscape:pageopacity="0.0"
     inkscape:pageshadow="2"
     inkscape:zoom="3.959798"
     inkscape:cx="3.8033319"
     inkscape:cy="25.489749"
     inkscape:document-units="px"
     inkscape:current-layer="layer1"
     showgrid="false"
     inkscape:window-width="1920"
     inkscape:window-height="1011"
     inkscape:window-x="-3"
     inkscape:window-y="-3"
     inkscape:window-maximized="1" />
  <metadata
     id="metadata11640">
    <rdf:RDF>
      <cc:Work
         rdf:about="">
        <dc:format>image/svg+xml</dc:format>
        <dc:type
           rdf:resource="http://purl.org/dc/dcmitype/StillImage" />
        <dc:title></dc:title>
      </cc:Work>
    </rdf:RDF>
  </metadata>
  <g
     inkscape:label="Layer 1"
     inkscape:groupmode="layer"
     id="layer1"
     transform="translate(0,-983.36218)">
    <g
       transform="matrix(1.003134,0,0,1.0035034,-1091.474,194.96082)"
       id="g22244-5">
      <rect
         y="790.69397"
         x="1093.7159"
         height="58.291359"
         width="109.71979"
         id="rect23021-5-0-2-7-8-7-1-4"
         style="opacity:0.48427675;fill:#555555;fill-opacity:1;fill-rule:nonzero;stroke:#555555;stroke-width:10.07322407;stroke-linejoin:round;stroke-miterlimit:4;stroke-opacity:1;stroke-dasharray:none" />
      <path
         inkscape:connector-curvature="0"
         id="path18262-5-8-0-8-6-7-9"
         d="m 1094.4932,853.87366 c -3.9603,-0.0924 -3.761,-0.0462 -4.6089,-1.26828 -0.5276,-0.76319 -0.884,-1.60209 -1.1569,-2.72264 l -0.2046,-0.84029 -0.057,-25.68754 c -0.06,-27.13396 -0.023,-31.88438 0.2601,-33.05065 0.4037,-1.66968 1.0307,-2.90426 1.9219,-3.78033 l 0.4035,-0.39522 57.8317,0.0415 57.8315,0.0417 0.4676,0.42199 c 0.6014,0.5435 1.4227,2.07736 1.8152,3.39053 l 0.3083,1.03134 0,28.87293 0,28.87328 -0.276,1.09146 c -0.3494,1.3791 -1.1221,2.89115 -1.8439,3.60541 l -0.5372,0.53187 -54.293,-0.0462 c -29.8614,0 -55.8989,-0.074 -57.8613,-0.1247 z"
         style="fill:none;stroke:url(#linearGradient11633);stroke-width:0.75453377;stroke-miterlimit:4;stroke-opacity:1;stroke-dasharray:none" />
    </g>
    <g
       transform="matrix(1.003134,0,0,1.0035034,-1091.4739,194.96093)"
       id="g22244-5-3"
       style="fill:#868686;fill-opacity:1">
      <rect
         y="790.69397"
         x="1093.7159"
         height="58.291359"
         width="109.71979"
         id="rect23021-5-0-2-7-8-7-1-4-6"
         style="opacity:0.48427675;fill:#868686;fill-opacity:1;fill-rule:nonzero;stroke:#555555;stroke-width:10.07322407;stroke-linejoin:round;stroke-miterlimit:4;stroke-opacity:1;stroke-dasharray:none" />
      <path
         inkscape:connector-curvature="0"
         id="path18262-5-8-0-8-6-7-9-1"
         d="m 1094.4932,853.87366 c -3.9603,-0.0924 -3.761,-0.0462 -4.6089,-1.26828 -0.5276,-0.76319 -0.884,-1.60209 -1.1569,-2.72264 l -0.2046,-0.84029 -0.057,-25.68754 c -0.06,-27.13396 -0.023,-31.88438 0.2601,-33.05065 0.4037,-1.66968 1.0307,-2.90426 1.9219,-3.78033 l 0.4035,-0.39522 57.8317,0.0415 57.8315,0.0417 0.4676,0.42199 c 0.6014,0.5435 1.4227,2.07736 1.8152,3.39053 l 0.3083,1.03134 0,28.87293 0,28.87328 -0.276,1.09146 c -0.3494,1.3791 -1.1221,2.89115 -1.8439,3.60541 l -0.5372,0.53187 -54.293,-0.0462 c -29.8614,0 -55.8989,-0.074 -57.8613,-0.1247 z"
         style="fill:#868686;fill-opacity:1;stroke:url(#linearGradient41041);stroke-width:0.75453377;stroke-miterlimit:4;stroke-opacity:1;stroke-dasharray:none" />
    </g>
  </g>
</svg>
