<?xml version="1.0" encoding="UTF-8" standalone="no"?>
<!-- Created with Inkscape (http://www.inkscape.org/) -->

<svg
   xmlns:dc="http://purl.org/dc/elements/1.1/"
   xmlns:cc="http://creativecommons.org/ns#"
   xmlns:rdf="http://www.w3.org/1999/02/22-rdf-syntax-ns#"
   xmlns:svg="http://www.w3.org/2000/svg"
   xmlns="http://www.w3.org/2000/svg"
   xmlns:sodipodi="http://sodipodi.sourceforge.net/DTD/sodipodi-0.dtd"
   xmlns:inkscape="http://www.inkscape.org/namespaces/inkscape"
   width="26"
   height="23"
   id="svg56106"
   version="1.1"
   inkscape:version="0.48.4 r9939"
   sodipodi:docname="Новый документ 66">
  <defs
     id="defs56108" />
  <sodipodi:namedview
     id="base"
     pagecolor="#ffffff"
     bordercolor="#666666"
     borderopacity="1.0"
     inkscape:pageopacity="0.0"
     inkscape:pageshadow="2"
     inkscape:zoom="11.2"
     inkscape:cx="14.085685"
     inkscape:cy="17.402301"
     inkscape:document-units="px"
     inkscape:current-layer="layer1"
     showgrid="false"
     inkscape:window-width="1680"
     inkscape:window-height="981"
     inkscape:window-x="-3"
     inkscape:window-y="-3"
     inkscape:window-maximized="1" />
  <metadata
     id="metadata56111">
    <rdf:RDF>
      <cc:Work
         rdf:about="">
        <dc:format>image/svg+xml</dc:format>
        <dc:type
           rdf:resource="http://purl.org/dc/dcmitype/StillImage" />
        <dc:title></dc:title>
      </cc:Work>
    </rdf:RDF>
  </metadata>
  <g
     inkscape:label="Layer 1"
     inkscape:groupmode="layer"
     id="layer1"
     transform="translate(0,-1029.3622)">
    <path
       inkscape:connector-curvature="0"
       style="font-size:14.00498962px;fill:#666666;fill-opacity:1;fill-rule:nonzero;stroke:none;stroke-width:1.77330697;marker:none;visibility:visible;display:inline;overflow:visible;enable-background:accumulate"
       d="m 13.253819,1029.3583 c -0.0516,0 -0.11024,0.011 -0.16334,0.022 -0.1328,0.033 -0.24121,0.1041 -0.30633,0.2255 l -12.58536064,21.9866 c -0.0906,0.1517 -0.0854,0.3376 0,0.4922 0.0855,0.1546 0.25358,0.2441 0.42904,0.2459 l 25.15026064,0 c 0.17864,0 0.35981,-0.091 0.44953,-0.2459 0.0898,-0.1557 0.092,-0.338 0,-0.4922 l -12.60581,-21.9865 c -0.0786,-0.1441 -0.21209,-0.2296 -0.36777,-0.2459 z m -1.04194,8.7167 2.00221,0 -0.22483,6.7477 -1.55273,0 -0.22483,-6.7477 z m 0,7.8142 1.96136,0 0,1.8664 -1.96136,0 0,-1.8664 z"
       id="path10317-4-6-2-6-8" />
  </g>
</svg>
