<?xml version="1.0" encoding="UTF-8" standalone="no"?>
<!-- Created with Inkscape (http://www.inkscape.org/) -->

<svg
   xmlns:dc="http://purl.org/dc/elements/1.1/"
   xmlns:cc="http://creativecommons.org/ns#"
   xmlns:rdf="http://www.w3.org/1999/02/22-rdf-syntax-ns#"
   xmlns:svg="http://www.w3.org/2000/svg"
   xmlns="http://www.w3.org/2000/svg"
   xmlns:xlink="http://www.w3.org/1999/xlink"
   xmlns:sodipodi="http://sodipodi.sourceforge.net/DTD/sodipodi-0.dtd"
   xmlns:inkscape="http://www.inkscape.org/namespaces/inkscape"
   width="120"
   height="70"
   id="svg48872"
   version="1.1"
   inkscape:version="0.48.4 r9939"
   sodipodi:docname="Localblack.svg">
  <defs
     id="defs48874">
    <linearGradient
       id="linearGradient18264-02-5-9-01">
      <stop
         style="stop-color:#292929;stop-opacity:1;"
         offset="0"
         id="stop18266-978-6-5-2" />
      <stop
         style="stop-color:#9a9a9a;stop-opacity:0.47187501;"
         offset="1"
         id="stop18268-1-4-6-1" />
    </linearGradient>
    <linearGradient
       inkscape:collect="always"
       xlink:href="#linearGradient18264-02-5-9-01-8"
       id="linearGradient21389-5-7"
       gradientUnits="userSpaceOnUse"
       gradientTransform="matrix(4.2169707,0,0,8.3518635,-1944.3175,438.03824)"
       x1="472.55441"
       y1="67.070892"
       x2="472.55441"
       y2="73.617867" />
    <linearGradient
       id="linearGradient18264-02-5-9-01-8">
      <stop
         style="stop-color:#292929;stop-opacity:1;"
         offset="0"
         id="stop18266-978-6-5-2-4" />
      <stop
         style="stop-color:#9a9a9a;stop-opacity:0.47187501;"
         offset="1"
         id="stop18268-1-4-6-1-3" />
    </linearGradient>
    <linearGradient
       inkscape:collect="always"
       xlink:href="#linearGradient18264-02-5-9-0-7"
       id="linearGradient14867"
       gradientUnits="userSpaceOnUse"
       gradientTransform="matrix(4.2169707,0,0,8.3518635,-1928.7318,384.36146)"
       x1="472.55441"
       y1="67.070892"
       x2="472.55441"
       y2="73.617867" />
    <linearGradient
       id="linearGradient18264-02-5-9-0-7">
      <stop
         style="stop-color:#292929;stop-opacity:1;"
         offset="0"
         id="stop18266-978-6-5-7-9" />
      <stop
         style="stop-color:#9a9a9a;stop-opacity:0.47187501;"
         offset="1"
         id="stop18268-1-4-6-7-2" />
    </linearGradient>
    <linearGradient
       inkscape:collect="always"
       xlink:href="#linearGradient20647-0-1"
       id="linearGradient14870"
       gradientUnits="userSpaceOnUse"
       x1="350.09854"
       y1="224.3719"
       x2="336.39886"
       y2="207.00343"
       gradientTransform="matrix(3.6824347,0,0,3.6824347,-695.69298,-5.7952918)" />
    <linearGradient
       id="linearGradient20647-0-1">
      <stop
         style="stop-color:#123e07;stop-opacity:1;"
         offset="0"
         id="stop20649-2-7" />
      <stop
         style="stop-color:#1b5d0b;stop-opacity:1;"
         offset="1"
         id="stop20651-8-2" />
    </linearGradient>
    <linearGradient
       inkscape:collect="always"
       xlink:href="#linearGradient20647-0-1"
       id="linearGradient14872"
       gradientUnits="userSpaceOnUse"
       x1="350.09854"
       y1="224.3719"
       x2="336.39886"
       y2="207.00343"
       gradientTransform="matrix(3.6824347,0,0,3.6824347,-695.69298,-5.7952918)" />
    <linearGradient
       id="linearGradient49010">
      <stop
         style="stop-color:#123e07;stop-opacity:1;"
         offset="0"
         id="stop49012" />
      <stop
         style="stop-color:#1b5d0b;stop-opacity:1;"
         offset="1"
         id="stop49014" />
    </linearGradient>
    <linearGradient
       y2="207.00343"
       x2="336.39886"
       y1="224.3719"
       x1="350.09854"
       gradientTransform="matrix(3.6824347,0,0,3.6824347,-1197.8846,172.04774)"
       gradientUnits="userSpaceOnUse"
       id="linearGradient49021"
       xlink:href="#linearGradient20647-0-1"
       inkscape:collect="always" />
    <linearGradient
       y2="207.00343"
       x2="336.39886"
       y1="224.3719"
       x1="350.09854"
       gradientTransform="matrix(3.6824347,0,0,3.6824347,-1197.8846,172.04774)"
       gradientUnits="userSpaceOnUse"
       id="linearGradient49023"
       xlink:href="#linearGradient20647-0-1"
       inkscape:collect="always" />
    <linearGradient
       inkscape:collect="always"
       xlink:href="#linearGradient18264-02-5-9-01-2"
       id="linearGradient21389-5"
       gradientUnits="userSpaceOnUse"
       gradientTransform="matrix(5.3633892,0,0,10.681541,-2473.3784,266.04873)"
       x1="472.55441"
       y1="67.070892"
       x2="472.55441"
       y2="73.617867" />
    <linearGradient
       id="linearGradient18264-02-5-9-01-2">
      <stop
         style="stop-color:#292929;stop-opacity:1;"
         offset="0"
         id="stop18266-978-6-5-2-1" />
      <stop
         style="stop-color:#9a9a9a;stop-opacity:0.47187501;"
         offset="1"
         id="stop18268-1-4-6-1-31" />
    </linearGradient>
  </defs>
  <sodipodi:namedview
     id="base"
     pagecolor="#ffffff"
     bordercolor="#666666"
     borderopacity="1.0"
     inkscape:pageopacity="0.0"
     inkscape:pageshadow="2"
     inkscape:zoom="1.4"
     inkscape:cx="150.7925"
     inkscape:cy="-45.230297"
     inkscape:document-units="px"
     inkscape:current-layer="layer1"
     showgrid="false"
     inkscape:window-width="1920"
     inkscape:window-height="1011"
     inkscape:window-x="-3"
     inkscape:window-y="-3"
     inkscape:window-maximized="1" />
  <metadata
     id="metadata48877">
    <rdf:RDF>
      <cc:Work
         rdf:about="">
        <dc:format>image/svg+xml</dc:format>
        <dc:type
           rdf:resource="http://purl.org/dc/dcmitype/StillImage" />
        <dc:title />
      </cc:Work>
    </rdf:RDF>
  </metadata>
  <g
     inkscape:label="Layer 1"
     inkscape:groupmode="layer"
     id="layer1"
     transform="translate(0,-982.36218)">
    <rect
       style="fill:#252525;fill-opacity:1;fill-rule:nonzero;stroke:#252525;stroke-width:10.01509857;stroke-linejoin:round;stroke-miterlimit:4;stroke-opacity:1;stroke-dasharray:none"
       id="rect23021-5-0-2-7-14"
       width="108.28577"
       height="58.383625"
       x="6.1319771"
       y="988.1756" />
    <path
       style="fill:none;stroke:url(#linearGradient21389-5);stroke-width:0.75689667;stroke-miterlimit:4;stroke-opacity:1;stroke-dasharray:none"
       d="m 6.3487838,1051.8231 c -3.9068814,-0.096 -3.7101249,-0.042 -4.5466388,-1.2936 -0.5204954,-0.7785 -0.8720752,-1.6344 -1.14123839,-2.7773 l -0.2018694,-0.8572 -0.0565977,-26.203 c -0.0585055,-27.67829 -0.0234021,-32.52394 0.25666102,-33.71362 0.39811707,-1.70322 1.01671067,-2.96254 1.89595917,-3.85621 l 0.3980915,-0.40314 57.0498498,0.0424 57.049689,0.0425 0.46133,0.43045 c 0.59325,0.55449 1.4034,2.11904 1.79074,3.45867 l 0.30396,1.05192 0,29.45233 0,29.4524 -0.27212,1.1132 c -0.34471,1.407 -1.10706,2.9494 -1.81904,3.6781 l -0.52981,0.5427 -53.559202,-0.036 c -29.457699,-0.023 -55.1431944,-0.078 -57.0790393,-0.1253 z"
       id="path18262-5-8-0-6"
       inkscape:connector-curvature="0" />
    <text
       xml:space="preserve"
       style="font-size:19.90121651px;font-style:normal;font-variant:normal;font-weight:normal;font-stretch:normal;text-align:center;line-height:125%;letter-spacing:0px;word-spacing:0px;text-anchor:middle;fill:#ffffff;fill-opacity:1;stroke:none;font-family:Nimbus Sans L;-inkscape-font-specification:Nimbus Sans L"
       x="61.396271"
       y="1021.0869"
       id="text2991-1-1-58-4-9-5-3-4-4-6-2"
       sodipodi:linespacing="125%"
       transform="scale(0.9972272,1.0027805)"><tspan
         sodipodi:role="line"
         x="64.156013"
         y="1021.0869"
         id="tspan14854">МЕСТНОЕ </tspan></text>
  </g>
</svg>
