<?xml version="1.0" encoding="UTF-8" standalone="no"?>
<!-- Created with Inkscape (http://www.inkscape.org/) -->

<svg
   xmlns:dc="http://purl.org/dc/elements/1.1/"
   xmlns:cc="http://creativecommons.org/ns#"
   xmlns:rdf="http://www.w3.org/1999/02/22-rdf-syntax-ns#"
   xmlns:svg="http://www.w3.org/2000/svg"
   xmlns="http://www.w3.org/2000/svg"
   xmlns:xlink="http://www.w3.org/1999/xlink"
   xmlns:sodipodi="http://sodipodi.sourceforge.net/DTD/sodipodi-0.dtd"
   xmlns:inkscape="http://www.inkscape.org/namespaces/inkscape"
   width="143"
   height="83"
   id="svg48872"
   version="1.1"
   inkscape:version="0.48.4 r9939"
   sodipodi:docname="Qrazblock.svg">
  <defs
     id="defs48874">
    <linearGradient
       id="linearGradient18264-02-5-9-01">
      <stop
         style="stop-color:#292929;stop-opacity:1;"
         offset="0"
         id="stop18266-978-6-5-2" />
      <stop
         style="stop-color:#9a9a9a;stop-opacity:0.47187501;"
         offset="1"
         id="stop18268-1-4-6-1" />
    </linearGradient>
    <linearGradient
       id="linearGradient18264-02-5-9-01-8">
      <stop
         style="stop-color:#292929;stop-opacity:1;"
         offset="0"
         id="stop18266-978-6-5-2-4" />
      <stop
         style="stop-color:#9a9a9a;stop-opacity:0.47187501;"
         offset="1"
         id="stop18268-1-4-6-1-3" />
    </linearGradient>
    <linearGradient
       id="linearGradient18264-02-5-9-0-7">
      <stop
         style="stop-color:#292929;stop-opacity:1;"
         offset="0"
         id="stop18266-978-6-5-7-9" />
      <stop
         style="stop-color:#9a9a9a;stop-opacity:0.47187501;"
         offset="1"
         id="stop18268-1-4-6-7-2" />
    </linearGradient>
    <linearGradient
       inkscape:collect="always"
       xlink:href="#linearGradient20647-0-1"
       id="linearGradient14870"
       gradientUnits="userSpaceOnUse"
       x1="350.09854"
       y1="224.3719"
       x2="336.39886"
       y2="207.00343"
       gradientTransform="matrix(3.6824347,0,0,3.6824347,-695.69298,-5.7952918)" />
    <linearGradient
       id="linearGradient20647-0-1">
      <stop
         style="stop-color:#123e07;stop-opacity:1;"
         offset="0"
         id="stop20649-2-7" />
      <stop
         style="stop-color:#1b5d0b;stop-opacity:1;"
         offset="1"
         id="stop20651-8-2" />
    </linearGradient>
    <linearGradient
       inkscape:collect="always"
       xlink:href="#linearGradient20647-0-1"
       id="linearGradient14872"
       gradientUnits="userSpaceOnUse"
       x1="350.09854"
       y1="224.3719"
       x2="336.39886"
       y2="207.00343"
       gradientTransform="matrix(3.6824347,0,0,3.6824347,-695.69298,-5.7952918)" />
    <linearGradient
       id="linearGradient49010">
      <stop
         style="stop-color:#123e07;stop-opacity:1;"
         offset="0"
         id="stop49012" />
      <stop
         style="stop-color:#1b5d0b;stop-opacity:1;"
         offset="1"
         id="stop49014" />
    </linearGradient>
    <linearGradient
       id="linearGradient18264-02-5-9-01-2">
      <stop
         style="stop-color:#292929;stop-opacity:1;"
         offset="0"
         id="stop18266-978-6-5-2-1" />
      <stop
         style="stop-color:#9a9a9a;stop-opacity:0.47187501;"
         offset="1"
         id="stop18268-1-4-6-1-31" />
    </linearGradient>
    <linearGradient
       id="linearGradient18264-02-5-9-2-8">
      <stop
         style="stop-color:#292929;stop-opacity:1;"
         offset="0"
         id="stop18266-978-6-5-1-9" />
      <stop
         style="stop-color:#9a9a9a;stop-opacity:0.47187501;"
         offset="1"
         id="stop18268-1-4-6-6-8" />
    </linearGradient>
    <linearGradient
       inkscape:collect="always"
       xlink:href="#linearGradient18264-02-5-9-0-7-1"
       id="linearGradient14867"
       gradientUnits="userSpaceOnUse"
       gradientTransform="matrix(4.2169707,0,0,8.3518635,-1944.3892,437.647)"
       x1="472.55441"
       y1="67.070892"
       x2="472.55441"
       y2="73.617867" />
    <linearGradient
       id="linearGradient18264-02-5-9-0-7-1">
      <stop
         style="stop-color:#292929;stop-opacity:1;"
         offset="0"
         id="stop18266-978-6-5-7-9-4" />
      <stop
         style="stop-color:#9a9a9a;stop-opacity:0.47187501;"
         offset="1"
         id="stop18268-1-4-6-7-2-2" />
    </linearGradient>
    <linearGradient
       inkscape:collect="always"
       xlink:href="#linearGradient20647-0-1-0"
       id="linearGradient14870-3"
       gradientUnits="userSpaceOnUse"
       x1="350.09854"
       y1="224.3719"
       x2="336.39886"
       y2="207.00343"
       gradientTransform="matrix(3.6824347,0,0,3.6824347,-695.69298,-5.7952918)" />
    <linearGradient
       id="linearGradient20647-0-1-0">
      <stop
         style="stop-color:#123e07;stop-opacity:1;"
         offset="0"
         id="stop20649-2-7-9" />
      <stop
         style="stop-color:#1b5d0b;stop-opacity:1;"
         offset="1"
         id="stop20651-8-2-0" />
    </linearGradient>
    <linearGradient
       inkscape:collect="always"
       xlink:href="#linearGradient20647-0-1-0"
       id="linearGradient14872-9"
       gradientUnits="userSpaceOnUse"
       x1="350.09854"
       y1="224.3719"
       x2="336.39886"
       y2="207.00343"
       gradientTransform="matrix(3.6824347,0,0,3.6824347,-695.69298,-5.7952918)" />
    <linearGradient
       id="linearGradient49227">
      <stop
         style="stop-color:#123e07;stop-opacity:1;"
         offset="0"
         id="stop49229" />
      <stop
         style="stop-color:#1b5d0b;stop-opacity:1;"
         offset="1"
         id="stop49231" />
    </linearGradient>
    <linearGradient
       y2="207.00343"
       x2="336.39886"
       y1="224.3719"
       x1="350.09854"
       gradientTransform="matrix(3.6824347,0,0,3.6824347,-1213.542,225.33328)"
       gradientUnits="userSpaceOnUse"
       id="linearGradient49238"
       xlink:href="#linearGradient20647-0-1-0"
       inkscape:collect="always" />
    <linearGradient
       y2="207.00343"
       x2="336.39886"
       y1="224.3719"
       x1="350.09854"
       gradientTransform="matrix(3.6824347,0,0,3.6824347,-1213.542,225.33328)"
       gradientUnits="userSpaceOnUse"
       id="linearGradient49240"
       xlink:href="#linearGradient20647-0-1-0"
       inkscape:collect="always" />
    <linearGradient
       y2="207.00343"
       x2="336.39886"
       y1="224.3719"
       x1="350.09854"
       gradientTransform="matrix(5.6017591,0,0,5.6017591,-1846.2136,-205.5234)"
       gradientUnits="userSpaceOnUse"
       id="linearGradient15664"
       xlink:href="#linearGradient20647-0-1-9"
       inkscape:collect="always" />
    <linearGradient
       id="linearGradient20647-0-1-9">
      <stop
         style="stop-color:#123e07;stop-opacity:1;"
         offset="0"
         id="stop20649-2-7-1" />
      <stop
         style="stop-color:#1b8600;stop-opacity:1;"
         offset="1"
         id="stop20651-8-2-8" />
    </linearGradient>
    <linearGradient
       y2="207.00343"
       x2="336.39886"
       y1="224.3719"
       x1="350.09854"
       gradientTransform="matrix(5.6017591,0,0,5.6017591,-1846.2136,-205.5234)"
       gradientUnits="userSpaceOnUse"
       id="linearGradient15666"
       xlink:href="#linearGradient20647-0-1-9"
       inkscape:collect="always" />
    <linearGradient
       id="linearGradient49319">
      <stop
         style="stop-color:#123e07;stop-opacity:1;"
         offset="0"
         id="stop49321" />
      <stop
         style="stop-color:#1b5d0b;stop-opacity:1;"
         offset="1"
         id="stop49323" />
    </linearGradient>
    <linearGradient
       inkscape:collect="always"
       xlink:href="#linearGradient18264-02-5-9-2-6-8"
       id="linearGradient14860"
       gradientUnits="userSpaceOnUse"
       gradientTransform="matrix(6.414901,0,0,12.704944,-2957.9862,117.45053)"
       x1="472.55441"
       y1="67.070892"
       x2="472.55441"
       y2="73.617867" />
    <linearGradient
       id="linearGradient18264-02-5-9-2-6-8">
      <stop
         style="stop-color:#292929;stop-opacity:1;"
         offset="0"
         id="stop18266-978-6-5-1-0-2" />
      <stop
         style="stop-color:#9a9a9a;stop-opacity:0.47187501;"
         offset="1"
         id="stop18268-1-4-6-6-9-7" />
    </linearGradient>
  </defs>
  <sodipodi:namedview
     id="base"
     pagecolor="#ffffff"
     bordercolor="#666666"
     borderopacity="1.0"
     inkscape:pageopacity="0.0"
     inkscape:pageshadow="2"
     inkscape:zoom="3.959798"
     inkscape:cx="-2.8295806"
     inkscape:cy="60.016559"
     inkscape:document-units="px"
     inkscape:current-layer="layer1"
     showgrid="false"
     inkscape:window-width="1920"
     inkscape:window-height="1011"
     inkscape:window-x="-3"
     inkscape:window-y="-3"
     inkscape:window-maximized="1" />
  <metadata
     id="metadata48877">
    <rdf:RDF>
      <cc:Work
         rdf:about="">
        <dc:format>image/svg+xml</dc:format>
        <dc:type
           rdf:resource="http://purl.org/dc/dcmitype/StillImage" />
        <dc:title />
      </cc:Work>
    </rdf:RDF>
  </metadata>
  <g
     inkscape:label="Layer 1"
     inkscape:groupmode="layer"
     id="layer1"
     transform="translate(0,-969.36218)">
    <rect
       style="opacity:0.48427675;fill:#000000;fill-opacity:1;fill-rule:nonzero;stroke:#000000;stroke-width:11.94538021;stroke-linejoin:round;stroke-miterlimit:4;stroke-opacity:1;stroke-dasharray:none"
       id="rect23021-5-0-2-7-8-1-1"
       width="129.51561"
       height="69.443222"
       x="7.6413417"
       y="976.36987"
       inkscape:export-filename="/home/pv/Projects/mpu.22220/src/GUI/images/q-unblock.png"
       inkscape:export-xdpi="90"
       inkscape:export-ydpi="90" />
    <path
       style="fill:none;stroke:url(#linearGradient14860);stroke-width:0.90277886;stroke-miterlimit:4;stroke-opacity:1;stroke-dasharray:none"
       d="m 7.9004011,1052.074 c -4.6728248,-0.1141 -4.4374935,-0.05 -5.4380242,-1.5384 -0.622525,-0.9261 -1.0430485,-1.9441 -1.3649823,-3.3033 l -0.24143136,-1.0197 -0.067846,-31.1669 c -0.0699757,-32.92125 -0.0279903,-38.68481 0.30698036,-40.09984 0.4761389,-2.0258 1.2159645,-3.5237 2.2675927,-4.58663 l 0.4761389,-0.47952 68.2346368,0.0503 68.234474,0.0503 0.55177,0.512 c 0.70958,0.65944 1.67856,2.52045 2.14177,4.11361 l 0.36356,1.25135 0,35.03133 0,35.0317 -0.32547,1.3242 c -0.41227,1.6735 -1.32407,3.5079 -2.17566,4.3747 l -0.63372,0.6454 -64.059647,-0.044 c -35.232944,-0.027 -65.954159,-0.091 -68.2695335,-0.1491 z"
       id="path18262-5-8-0-8-2-1"
       inkscape:connector-curvature="0"
       inkscape:export-filename="/home/pv/Projects/mpu.22220/src/GUI/images/q-unblock.png"
       inkscape:export-xdpi="90"
       inkscape:export-ydpi="90" />
    <rect
       style="fill:url(#linearGradient15664);fill-opacity:1;fill-rule:nonzero;stroke:url(#linearGradient15666);stroke-width:11.94538021;stroke-linejoin:round;stroke-miterlimit:4;stroke-opacity:1;stroke-dasharray:none"
       id="rect23021-5-0-2-7-1-5-7"
       width="129.51561"
       height="69.443222"
       x="7.6413417"
       y="976.36987"
       inkscape:export-filename="/home/pv/Projects/mpu.22220/src/GUI/images/q-unblock.png"
       inkscape:export-xdpi="90"
       inkscape:export-ydpi="90" />
    <text
       xml:space="preserve"
       style="font-size:23.5795784px;font-style:normal;font-variant:normal;font-weight:normal;font-stretch:normal;text-align:center;line-height:125%;letter-spacing:0px;word-spacing:0px;text-anchor:middle;fill:#d6d6d6;fill-opacity:1;stroke:none;font-family:Nimbus Sans L;-inkscape-font-specification:Nimbus Sans L"
       x="72.148788"
       y="1004.7766"
       id="text2991-1-1-58-4-9-5-3-4-4-6-0-5-4"
       sodipodi:linespacing="125%"
       inkscape:export-filename="/home/pv/Projects/mpu.22220/src/GUI/images/q-unblock.png"
       inkscape:export-xdpi="90"
       inkscape:export-ydpi="90"><tspan
         sodipodi:role="line"
         x="72.148788"
         y="1004.7766"
         id="tspan19599-9-1">Разблок.</tspan><tspan
         sodipodi:role="line"
         x="72.148788"
         y="1034.251"
         id="tspan20657-5-8">Q</tspan></text>
  </g>
</svg>
