<?xml version="1.0" encoding="UTF-8" standalone="no"?>
<!-- Created with Inkscape (http://www.inkscape.org/) -->

<svg
   xmlns:dc="http://purl.org/dc/elements/1.1/"
   xmlns:cc="http://creativecommons.org/ns#"
   xmlns:rdf="http://www.w3.org/1999/02/22-rdf-syntax-ns#"
   xmlns:svg="http://www.w3.org/2000/svg"
   xmlns="http://www.w3.org/2000/svg"
   xmlns:xlink="http://www.w3.org/1999/xlink"
   xmlns:sodipodi="http://sodipodi.sourceforge.net/DTD/sodipodi-0.dtd"
   xmlns:inkscape="http://www.inkscape.org/namespaces/inkscape"
   width="120"
   height="70"
   id="svg48872"
   version="1.1"
   inkscape:version="0.48.4 r9939"
   sodipodi:docname="wgray.svg">
  <defs
     id="defs48874">
    <linearGradient
       id="linearGradient18264-02-5-9-01">
      <stop
         style="stop-color:#292929;stop-opacity:1;"
         offset="0"
         id="stop18266-978-6-5-2" />
      <stop
         style="stop-color:#9a9a9a;stop-opacity:0.47187501;"
         offset="1"
         id="stop18268-1-4-6-1" />
    </linearGradient>
    <linearGradient
       inkscape:collect="always"
       xlink:href="#linearGradient18264-02-5-9-01-8"
       id="linearGradient21389-5-7"
       gradientUnits="userSpaceOnUse"
       gradientTransform="matrix(4.2169707,0,0,8.3518635,-1944.3175,438.03824)"
       x1="472.55441"
       y1="67.070892"
       x2="472.55441"
       y2="73.617867" />
    <linearGradient
       id="linearGradient18264-02-5-9-01-8">
      <stop
         style="stop-color:#292929;stop-opacity:1;"
         offset="0"
         id="stop18266-978-6-5-2-4" />
      <stop
         style="stop-color:#9a9a9a;stop-opacity:0.47187501;"
         offset="1"
         id="stop18268-1-4-6-1-3" />
    </linearGradient>
    <linearGradient
       inkscape:collect="always"
       xlink:href="#linearGradient18264-02-5-9-0-7"
       id="linearGradient14867"
       gradientUnits="userSpaceOnUse"
       gradientTransform="matrix(4.2169707,0,0,8.3518635,-1928.7318,384.36146)"
       x1="472.55441"
       y1="67.070892"
       x2="472.55441"
       y2="73.617867" />
    <linearGradient
       id="linearGradient18264-02-5-9-0-7">
      <stop
         style="stop-color:#292929;stop-opacity:1;"
         offset="0"
         id="stop18266-978-6-5-7-9" />
      <stop
         style="stop-color:#9a9a9a;stop-opacity:0.47187501;"
         offset="1"
         id="stop18268-1-4-6-7-2" />
    </linearGradient>
    <linearGradient
       inkscape:collect="always"
       xlink:href="#linearGradient20647-0-1"
       id="linearGradient14870"
       gradientUnits="userSpaceOnUse"
       x1="350.09854"
       y1="224.3719"
       x2="336.39886"
       y2="207.00343"
       gradientTransform="matrix(3.6824347,0,0,3.6824347,-695.69298,-5.7952918)" />
    <linearGradient
       id="linearGradient20647-0-1">
      <stop
         style="stop-color:#123e07;stop-opacity:1;"
         offset="0"
         id="stop20649-2-7" />
      <stop
         style="stop-color:#1b5d0b;stop-opacity:1;"
         offset="1"
         id="stop20651-8-2" />
    </linearGradient>
    <linearGradient
       inkscape:collect="always"
       xlink:href="#linearGradient20647-0-1"
       id="linearGradient14872"
       gradientUnits="userSpaceOnUse"
       x1="350.09854"
       y1="224.3719"
       x2="336.39886"
       y2="207.00343"
       gradientTransform="matrix(3.6824347,0,0,3.6824347,-695.69298,-5.7952918)" />
    <linearGradient
       id="linearGradient49010">
      <stop
         style="stop-color:#123e07;stop-opacity:1;"
         offset="0"
         id="stop49012" />
      <stop
         style="stop-color:#1b5d0b;stop-opacity:1;"
         offset="1"
         id="stop49014" />
    </linearGradient>
    <linearGradient
       y2="207.00343"
       x2="336.39886"
       y1="224.3719"
       x1="350.09854"
       gradientTransform="matrix(3.6824347,0,0,3.6824347,-1197.8846,172.04774)"
       gradientUnits="userSpaceOnUse"
       id="linearGradient49021"
       xlink:href="#linearGradient20647-0-1"
       inkscape:collect="always" />
    <linearGradient
       y2="207.00343"
       x2="336.39886"
       y1="224.3719"
       x1="350.09854"
       gradientTransform="matrix(3.6824347,0,0,3.6824347,-1197.8846,172.04774)"
       gradientUnits="userSpaceOnUse"
       id="linearGradient49023"
       xlink:href="#linearGradient20647-0-1"
       inkscape:collect="always" />
    <linearGradient
       inkscape:collect="always"
       xlink:href="#linearGradient18264-02-5-9-01-2"
       id="linearGradient21389-5"
       gradientUnits="userSpaceOnUse"
       gradientTransform="matrix(5.384561,0,0,10.61552,-2483.3674,270.70339)"
       x1="472.55441"
       y1="67.070892"
       x2="472.55441"
       y2="73.617867" />
    <linearGradient
       id="linearGradient18264-02-5-9-01-2">
      <stop
         style="stop-color:#292929;stop-opacity:1;"
         offset="0"
         id="stop18266-978-6-5-2-1" />
      <stop
         style="stop-color:#9a9a9a;stop-opacity:0.47187501;"
         offset="1"
         id="stop18268-1-4-6-1-31" />
    </linearGradient>
  </defs>
  <sodipodi:namedview
     id="base"
     pagecolor="#ffffff"
     bordercolor="#666666"
     borderopacity="1.0"
     inkscape:pageopacity="0.0"
     inkscape:pageshadow="2"
     inkscape:zoom="3.959798"
     inkscape:cx="-52.705862"
     inkscape:cy="49.915034"
     inkscape:document-units="px"
     inkscape:current-layer="layer1"
     showgrid="false"
     inkscape:window-width="1920"
     inkscape:window-height="1011"
     inkscape:window-x="-3"
     inkscape:window-y="-3"
     inkscape:window-maximized="1" />
  <metadata
     id="metadata48877">
    <rdf:RDF>
      <cc:Work
         rdf:about="">
        <dc:format>image/svg+xml</dc:format>
        <dc:type
           rdf:resource="http://purl.org/dc/dcmitype/StillImage" />
        <dc:title />
      </cc:Work>
    </rdf:RDF>
  </metadata>
  <g
     inkscape:label="Layer 1"
     inkscape:groupmode="layer"
     id="layer1"
     transform="translate(0,-982.36218)">
    <rect
       style="fill:#5b5b5b;fill-opacity:1;fill-rule:nonzero;stroke:#5b5b5b;stroke-width:10.00378513000000069;stroke-linejoin:round;stroke-miterlimit:4;stroke-opacity:1;stroke-dasharray:none"
       id="rect23021-5-0-2-7-14"
       width="108.71323"
       height="58.022762"
       x="5.9307413"
       y="988.36688" />
    <path
       style="fill:none;stroke:url(#linearGradient21389-5);stroke-width:0.75604177;stroke-miterlimit:4;stroke-opacity:1;stroke-dasharray:none"
       d="m 6.148404,1051.621 c -3.9223037,-0.095 -3.7247705,-0.042 -4.5645866,-1.2856 -0.5225499,-0.7737 -0.87551759,-1.6244 -1.14574333,-2.7602 l -0.20266624,-0.8518 -0.0568211,-26.0413 C 0.11985023,993.17507 0.15509213,988.35936 0.43626091,987.17705 0.8359495,985.48436 1.456985,984.23281 2.3397042,983.34467 l 0.3996631,-0.40065 57.2750527,0.0421 57.27488,0.0422 0.46316,0.42779 c 0.59559,0.55105 1.40895,2.10594 1.7978,3.43729 l 0.30518,1.04541 0,29.27019 0,29.2705 -0.27319,1.1064 c -0.34608,1.3983 -1.11144,2.931 -1.82623,3.6553 l -0.5319,0.5392 -53.770631,-0.037 c -29.573983,-0.023 -55.3608707,-0.077 -57.3043572,-0.1245 z"
       id="path18262-5-8-0-6"
       inkscape:connector-curvature="0" />
    <text
       xml:space="preserve"
       style="font-size:19.87873459px;font-style:normal;font-variant:normal;font-weight:normal;font-stretch:normal;text-align:center;line-height:125%;letter-spacing:0px;word-spacing:0px;text-anchor:middle;fill:#ffffff;fill-opacity:1;stroke:none;font-family:Nimbus Sans L;-inkscape-font-specification:Nimbus Sans L"
       x="61.102001"
       y="1026.2798"
       id="text2991-1-1-58-4-9-5-3-4-4-6-2"
       sodipodi:linespacing="125%"
       transform="scale(1.0022958,0.99770945)"><tspan
         sodipodi:role="line"
         x="63.858624"
         y="1026.2798"
         id="tspan14854">ОБОРОТЫ </tspan></text>
  </g>
</svg>
