<?xml version="1.0" encoding="UTF-8" standalone="no"?>
<!-- Created with Inkscape (http://www.inkscape.org/) -->

<svg
   xmlns:dc="http://purl.org/dc/elements/1.1/"
   xmlns:cc="http://creativecommons.org/ns#"
   xmlns:rdf="http://www.w3.org/1999/02/22-rdf-syntax-ns#"
   xmlns:svg="http://www.w3.org/2000/svg"
   xmlns="http://www.w3.org/2000/svg"
   xmlns:xlink="http://www.w3.org/1999/xlink"
   xmlns:sodipodi="http://sodipodi.sourceforge.net/DTD/sodipodi-0.dtd"
   xmlns:inkscape="http://www.inkscape.org/namespaces/inkscape"
   width="120"
   height="141"
   id="svg5660"
   version="1.1"
   inkscape:version="0.48.4 r9939"
   sodipodi:docname="ad_green.svg">
  <defs
     id="defs5662">
    <linearGradient
       inkscape:collect="always"
       xlink:href="#linearGradient7515-6-8-7-5-46-1"
       id="linearGradient21497-2-8"
       gradientUnits="userSpaceOnUse"
       x1="-739.45844"
       y1="-0.50000149"
       x2="-721.54156"
       y2="-0.50000149" />
    <linearGradient
       id="linearGradient7515-6-8-7-5-46-1">
      <stop
         style="stop-color:#09540e;stop-opacity:1;"
         offset="0"
         id="stop7517-0-9-9-9-1-2" />
      <stop
         style="stop-color:#1c8226;stop-opacity:1;"
         offset="1"
         id="stop7519-5-0-64-7-6-6" />
    </linearGradient>
    <linearGradient
       inkscape:collect="always"
       xlink:href="#linearGradient7515-6-8-7-5-46-1"
       id="linearGradient21495-5-2"
       gradientUnits="userSpaceOnUse"
       x1="-739.45844"
       y1="-0.50000149"
       x2="-721.54156"
       y2="-0.50000149" />
    <linearGradient
       id="linearGradient5610">
      <stop
         style="stop-color:#09540e;stop-opacity:1;"
         offset="0"
         id="stop5612" />
      <stop
         style="stop-color:#1c8226;stop-opacity:1;"
         offset="1"
         id="stop5614" />
    </linearGradient>
    <linearGradient
       inkscape:collect="always"
       xlink:href="#linearGradient7515-6-8-7-5-46-1"
       id="linearGradient25452-9"
       gradientUnits="userSpaceOnUse"
       gradientTransform="matrix(3.3505257,0,0,3.3505257,2464.5336,956.09693)"
       x1="-739.45844"
       y1="-0.50000149"
       x2="-721.54156"
       y2="-0.50000149" />
    <linearGradient
       id="linearGradient5617">
      <stop
         style="stop-color:#09540e;stop-opacity:1;"
         offset="0"
         id="stop5619" />
      <stop
         style="stop-color:#1c8226;stop-opacity:1;"
         offset="1"
         id="stop5621" />
    </linearGradient>
    <linearGradient
       inkscape:collect="always"
       xlink:href="#linearGradient7515-6-8-7-5-46-1"
       id="linearGradient25455-4"
       gradientUnits="userSpaceOnUse"
       gradientTransform="matrix(3.3505257,0,0,3.3505257,2464.5336,956.09693)"
       x1="-739.45844"
       y1="-0.50000149"
       x2="-721.54156"
       y2="-0.50000149" />
    <linearGradient
       id="linearGradient5624">
      <stop
         style="stop-color:#09540e;stop-opacity:1;"
         offset="0"
         id="stop5626" />
      <stop
         style="stop-color:#1c8226;stop-opacity:1;"
         offset="1"
         id="stop5628" />
    </linearGradient>
    <linearGradient
       id="linearGradient10101-1-8-9-6-7-0-3">
      <stop
         style="stop-color:#ffffff;stop-opacity:1;"
         offset="0"
         id="stop10103-9-6-9-6-8-8-4" />
      <stop
         style="stop-color:#ffffff;stop-opacity:0;"
         offset="1"
         id="stop10105-2-2-1-1-3-6-2" />
    </linearGradient>
    <linearGradient
       y2="-0.50000149"
       x2="-721.54156"
       y1="-0.50000149"
       x1="-739.45844"
       gradientUnits="userSpaceOnUse"
       id="linearGradient5639"
       xlink:href="#linearGradient7515-6-8-7-5-46-1"
       inkscape:collect="always" />
    <linearGradient
       y2="-0.50000149"
       x2="-721.54156"
       y1="-0.50000149"
       x1="-739.45844"
       gradientUnits="userSpaceOnUse"
       id="linearGradient22613-6-4"
       xlink:href="#linearGradient7515-6-8-7-5-42-0-8"
       inkscape:collect="always" />
    <linearGradient
       id="linearGradient7515-6-8-7-5-42-0-8">
      <stop
         style="stop-color:#09540e;stop-opacity:1;"
         offset="0"
         id="stop7517-0-9-9-9-6-1-5" />
      <stop
         style="stop-color:#1c8226;stop-opacity:1;"
         offset="1"
         id="stop7519-5-0-64-7-7-8-5" />
    </linearGradient>
    <linearGradient
       inkscape:collect="always"
       xlink:href="#linearGradient7515-6-8-7-5-42-0-8"
       id="linearGradient21495-3-9-6"
       gradientUnits="userSpaceOnUse"
       x1="-739.45844"
       y1="-0.50000149"
       x2="-721.54156"
       y2="-0.50000149" />
    <linearGradient
       id="linearGradient5759">
      <stop
         style="stop-color:#89780e;stop-opacity:1;"
         offset="0"
         id="stop5761" />
      <stop
         style="stop-color:#c2cb16;stop-opacity:1;"
         offset="1"
         id="stop5763" />
    </linearGradient>
    <linearGradient
       inkscape:collect="always"
       xlink:href="#linearGradient7515-6-8-7-5-42-0-8"
       id="linearGradient25357-5"
       gradientUnits="userSpaceOnUse"
       gradientTransform="matrix(10.262201,0,0,9.9331813,7548.4283,767.39246)"
       x1="-739.45844"
       y1="-0.50000149"
       x2="-721.54156"
       y2="-0.50000149" />
    <linearGradient
       id="linearGradient5766">
      <stop
         style="stop-color:#89780e;stop-opacity:1;"
         offset="0"
         id="stop5768" />
      <stop
         style="stop-color:#c2cb16;stop-opacity:1;"
         offset="1"
         id="stop5770" />
    </linearGradient>
    <linearGradient
       inkscape:collect="always"
       xlink:href="#linearGradient7515-6-8-7-5-42-0-8"
       id="linearGradient25360-9"
       gradientUnits="userSpaceOnUse"
       gradientTransform="matrix(10.262201,0,0,9.9331813,7547.426,767.91483)"
       x1="-739.45844"
       y1="-0.50000149"
       x2="-721.54156"
       y2="-0.50000149" />
    <linearGradient
       id="linearGradient5773">
      <stop
         style="stop-color:#89780e;stop-opacity:1;"
         offset="0"
         id="stop5775" />
      <stop
         style="stop-color:#c2cb16;stop-opacity:1;"
         offset="1"
         id="stop5777" />
    </linearGradient>
    <linearGradient
       y2="-0.50000149"
       x2="-721.54156"
       y1="-0.50000149"
       x1="-739.45844"
       gradientUnits="userSpaceOnUse"
       id="linearGradient5784"
       xlink:href="#linearGradient7515-6-8-7-5-42-0-8"
       inkscape:collect="always" />
  </defs>
  <sodipodi:namedview
     id="base"
     pagecolor="#ffffff"
     bordercolor="#666666"
     borderopacity="1.0"
     inkscape:pageopacity="0.0"
     inkscape:pageshadow="2"
     inkscape:zoom="2.8"
     inkscape:cx="-146.20398"
     inkscape:cy="29.052815"
     inkscape:document-units="px"
     inkscape:current-layer="layer1"
     showgrid="false"
     inkscape:window-width="1920"
     inkscape:window-height="1011"
     inkscape:window-x="-3"
     inkscape:window-y="-3"
     inkscape:window-maximized="1" />
  <metadata
     id="metadata5665">
    <rdf:RDF>
      <cc:Work
         rdf:about="">
        <dc:format>image/svg+xml</dc:format>
        <dc:type
           rdf:resource="http://purl.org/dc/dcmitype/StillImage" />
        <dc:title></dc:title>
      </cc:Work>
    </rdf:RDF>
  </metadata>
  <g
     inkscape:label="Layer 1"
     inkscape:groupmode="layer"
     id="layer1"
     transform="translate(0,-911.3622)">
    <path
       transform="matrix(4.6645003,0,0,4.5149505,3951.177,2262.7009)"
       sodipodi:type="arc"
       style="fill:none;stroke:url(#linearGradient5784);stroke-width:1;stroke-linecap:round;stroke-linejoin:round;stroke-miterlimit:4;stroke-opacity:1;stroke-dasharray:none;stroke-dashoffset:0"
       id="path6534-0-6-2-4-8-7-4-9-3-1-0-7-8"
       sodipodi:cx="-834.20923"
       sodipodi:cy="-281.00583"
       sodipodi:rx="7.2478447"
       sodipodi:ry="7.2478447"
       d="m -826.96138,-281.00583 a 7.2478447,7.2478447 0 1 1 -14.49569,0 7.2478447,7.2478447 0 1 1 14.49569,0 z" />
    <path
       style="fill:none;stroke:url(#linearGradient25360-9);stroke-width:6.05426455px;stroke-linecap:butt;stroke-linejoin:miter;stroke-opacity:1"
       d="m 17.01593,914.65933 0,16.84701 12.509986,17.90034"
       id="path6681-4-7-5-2-3-0-6-2-3-2"
       inkscape:connector-curvature="0" />
    <path
       style="fill:none;stroke:url(#linearGradient25357-5);stroke-width:6.05426455px;stroke-linecap:butt;stroke-linejoin:miter;stroke-opacity:1"
       d="m 100.42166,914.92648 0,16.84727 -12.510105,17.90064"
       id="path6681-3-3-6-4-5-5-4-5-7-2-6"
       inkscape:connector-curvature="0" />
    <path
       transform="matrix(7.4362911,0,0,7.1978742,6263.4306,3016.6171)"
       sodipodi:type="arc"
       style="fill:none;stroke:url(#linearGradient21495-3-9-6);stroke-width:1.65905428;stroke-linecap:round;stroke-linejoin:round;stroke-miterlimit:4;stroke-opacity:1;stroke-dasharray:none;stroke-dashoffset:0"
       id="path6534-0-6-4-4-3-0-5-3-0-8-7-6-9-5"
       sodipodi:cx="-834.20923"
       sodipodi:cy="-281.00583"
       sodipodi:rx="7.2478447"
       sodipodi:ry="7.2478447"
       d="m -826.96138,-281.00583 a 7.2478447,7.2478447 0 1 1 -14.49569,0 7.2478447,7.2478447 0 1 1 14.49569,0 z" />
  </g>
</svg>
