<?xml version="1.0" encoding="UTF-8" standalone="no"?>
<!-- Created with Inkscape (http://www.inkscape.org/) -->

<svg
   xmlns:dc="http://purl.org/dc/elements/1.1/"
   xmlns:cc="http://creativecommons.org/ns#"
   xmlns:rdf="http://www.w3.org/1999/02/22-rdf-syntax-ns#"
   xmlns:svg="http://www.w3.org/2000/svg"
   xmlns="http://www.w3.org/2000/svg"
   xmlns:xlink="http://www.w3.org/1999/xlink"
   xmlns:sodipodi="http://sodipodi.sourceforge.net/DTD/sodipodi-0.dtd"
   xmlns:inkscape="http://www.inkscape.org/namespaces/inkscape"
   width="372"
   height="425"
   id="svg49579"
   version="1.1"
   inkscape:version="0.48.4 r9939"
   sodipodi:docname="bgset.svg">
  <defs
     id="defs49581">
    <radialGradient
       r="49.563629"
       fy="-342.04037"
       fx="-615.71173"
       cy="-342.04037"
       cx="-615.71173"
       gradientTransform="matrix(6.9695616,-0.03964518,0.02754398,5.8223851,-21152.78,2623.0689)"
       gradientUnits="userSpaceOnUse"
       id="radialGradient23044"
       xlink:href="#linearGradient10613-7-39-94-3"
       inkscape:collect="always" />
    <linearGradient
       inkscape:collect="always"
       id="linearGradient10613-7-39-94-3">
      <stop
         style="stop-color:#797979;stop-opacity:1;"
         offset="0"
         id="stop10615-4-6-8-5" />
      <stop
         style="stop-color:#797979;stop-opacity:0;"
         offset="1"
         id="stop10617-7-0-12-9" />
    </linearGradient>
    <radialGradient
       r="49.563629"
       fy="-342.04037"
       fx="-615.71173"
       cy="-342.04037"
       cx="-615.71173"
       gradientTransform="matrix(6.9695616,-0.03964518,0.02754398,5.8223851,4276.0364,2649.1925)"
       gradientUnits="userSpaceOnUse"
       id="radialGradient49602"
       xlink:href="#linearGradient10613-7-39-94-3"
       inkscape:collect="always" />
  </defs>
  <sodipodi:namedview
     id="base"
     pagecolor="#ffffff"
     bordercolor="#666666"
     borderopacity="1.0"
     inkscape:pageopacity="0.0"
     inkscape:pageshadow="2"
     inkscape:zoom="1.4"
     inkscape:cx="97.416934"
     inkscape:cy="230.70026"
     inkscape:document-units="px"
     inkscape:current-layer="layer1"
     showgrid="false"
     inkscape:window-width="1920"
     inkscape:window-height="1011"
     inkscape:window-x="-3"
     inkscape:window-y="-3"
     inkscape:window-maximized="1" />
  <metadata
     id="metadata49584">
    <rdf:RDF>
      <cc:Work
         rdf:about="">
        <dc:format>image/svg+xml</dc:format>
        <dc:type
           rdf:resource="http://purl.org/dc/dcmitype/StillImage" />
        <dc:title></dc:title>
      </cc:Work>
    </rdf:RDF>
  </metadata>
  <g
     inkscape:label="Layer 1"
     inkscape:groupmode="layer"
     id="layer1"
     transform="translate(0,-627.36218)">
    <rect
       style="fill:url(#radialGradient49602);fill-opacity:1;fill-rule:nonzero;stroke:none"
       id="rect10611-4-4-5-8"
       width="372.21381"
       height="425.30447"
       x="0"
       y="627.05768" />
  </g>
</svg>
