<?xml version="1.0" encoding="UTF-8" standalone="no"?>
<!-- Created with Inkscape (http://www.inkscape.org/) -->

<svg
   xmlns:dc="http://purl.org/dc/elements/1.1/"
   xmlns:cc="http://creativecommons.org/ns#"
   xmlns:rdf="http://www.w3.org/1999/02/22-rdf-syntax-ns#"
   xmlns:svg="http://www.w3.org/2000/svg"
   xmlns="http://www.w3.org/2000/svg"
   xmlns:xlink="http://www.w3.org/1999/xlink"
   xmlns:sodipodi="http://sodipodi.sourceforge.net/DTD/sodipodi-0.dtd"
   xmlns:inkscape="http://www.inkscape.org/namespaces/inkscape"
   width="392"
   height="490"
   id="svg17805"
   version="1.1"
   inkscape:version="0.48.4 r9939"
   sodipodi:docname="bgsteklo.svg">
  <defs
     id="defs17807">
    <radialGradient
       inkscape:collect="always"
       xlink:href="#linearGradient10101-1-8-9-6-7-0-3"
       id="radialGradient13155"
       gradientUnits="userSpaceOnUse"
       gradientTransform="matrix(-6.3226754,-1.7289848,-2.5028403,9.7365167,4347.4952,-3215.486)"
       cx="464.85678"
       cy="479.51727"
       fx="464.85678"
       fy="479.51727"
       r="32.678715" />
    <linearGradient
       id="linearGradient10101-1-8-9-6-7-0-3">
      <stop
         style="stop-color:#ffffff;stop-opacity:1;"
         offset="0"
         id="stop10103-9-6-9-6-8-8-4" />
      <stop
         style="stop-color:#ffffff;stop-opacity:0;"
         offset="1"
         id="stop10105-2-2-1-1-3-6-2" />
    </linearGradient>
    <radialGradient
       r="32.678715"
       fy="479.51727"
       fx="464.85678"
       cy="479.51727"
       cx="464.85678"
       gradientTransform="matrix(-6.3226754,-1.7289848,-2.5028403,9.7365167,4338.4953,-3138.486)"
       gradientUnits="userSpaceOnUse"
       id="radialGradient17803"
       xlink:href="#linearGradient10101-1-8-9-6-7-0-3"
       inkscape:collect="always" />
    <radialGradient
       r="32.678715"
       fy="479.51727"
       fx="464.85678"
       cy="479.51727"
       cx="464.85678"
       gradientTransform="matrix(-3.8732123,-1.0269073,-1.5332167,5.7828733,2593.0089,-1153.7554)"
       gradientUnits="userSpaceOnUse"
       id="radialGradient25586-2"
       xlink:href="#linearGradient10101-1-8-9-6-7-0-3-4"
       inkscape:collect="always" />
    <linearGradient
       id="linearGradient10101-1-8-9-6-7-0-3-4">
      <stop
         style="stop-color:#ffffff;stop-opacity:1;"
         offset="0"
         id="stop10103-9-6-9-6-8-8-4-3" />
      <stop
         style="stop-color:#ffffff;stop-opacity:0;"
         offset="1"
         id="stop10105-2-2-1-1-3-6-2-9" />
    </linearGradient>
    <radialGradient
       r="32.678715"
       fy="479.51727"
       fx="464.85678"
       cy="479.51727"
       cx="464.85678"
       gradientTransform="matrix(-6.3836198,-1.6924933,-2.5269652,9.5310201,4378.2946,-3062.5056)"
       gradientUnits="userSpaceOnUse"
       id="radialGradient40147"
       xlink:href="#linearGradient10101-1-8-9-6-7-0-3-4"
       inkscape:collect="always" />
  </defs>
  <sodipodi:namedview
     id="base"
     pagecolor="#ffffff"
     bordercolor="#666666"
     borderopacity="1.0"
     inkscape:pageopacity="0.0"
     inkscape:pageshadow="2"
     inkscape:zoom="0.70000001"
     inkscape:cx="784.99907"
     inkscape:cy="228.61708"
     inkscape:document-units="px"
     inkscape:current-layer="layer1"
     showgrid="false"
     inkscape:window-width="1920"
     inkscape:window-height="1011"
     inkscape:window-x="-3"
     inkscape:window-y="-3"
     inkscape:window-maximized="1" />
  <metadata
     id="metadata17810">
    <rdf:RDF>
      <cc:Work
         rdf:about="">
        <dc:format>image/svg+xml</dc:format>
        <dc:type
           rdf:resource="http://purl.org/dc/dcmitype/StillImage" />
        <dc:title />
      </cc:Work>
    </rdf:RDF>
  </metadata>
  <g
     inkscape:label="Layer 1"
     inkscape:groupmode="layer"
     id="layer1"
     transform="translate(0,-562.36218)">
    <path
       style="opacity:0.19875776;fill:url(#radialGradient40147);fill-opacity:1;stroke:none"
       d="m 391.8848,729.92766 0,-167.56817 -195.94241,0 -195.94239,0 0.03,100.38034 0.03,100.38017 7.73365,6.51513 c 80.82354,68.08854 191.40415,111.93714 312.95624,124.097 11.8569,1.18616 54.9729,3.48483 70.33363,3.75002 0.44192,0 0.80305,-75.39198 0.80305,-167.55449 z"
       id="path10074-1-3-3-4-5-5-4-5"
       inkscape:connector-curvature="0" />
  </g>
</svg>
